C:\Users\hal\IdeaProjects\euczctubitjvORM\src\main\java\eu\cz\cvut\bietjv\orm\main\SpringOrmMain.java
C:\Users\hal\IdeaProjects\euczctubitjvORM\src\main\java\eu\cz\cvut\bietjv\orm\service\ProductService.java
C:\Users\hal\IdeaProjects\euczctubitjvORM\src\main\java\eu\cz\cvut\bietjv\orm\dao\ProductDao.java
C:\Users\hal\IdeaProjects\euczctubitjvORM\src\main\java\eu\cz\cvut\bietjv\orm\model\Product.java
